/Users/javierhernandez/Documents/Docs Proyectos/MauroDocumentos/FullFactura Java/FullFactura Api/api-factura/src/main/java/Entities/MensajeWs/MensajeEmpresas.java
/Users/javierhernandez/Documents/Docs Proyectos/MauroDocumentos/FullFactura Java/FullFactura Api/api-factura/src/main/java/Entities/FE/DocumentoRecepcionAdd.java
/Users/javierhernandez/Documents/Docs Proyectos/MauroDocumentos/FullFactura Java/FullFactura Api/api-factura/src/main/java/Entities/FE/InformacionReferenciaAdd.java
/Users/javierhernandez/Documents/Docs Proyectos/MauroDocumentos/FullFactura Java/FullFactura Api/api-factura/src/main/java/Entities/Catalogos/DistGeografica.java
/Users/javierhernandez/Documents/Docs Proyectos/MauroDocumentos/FullFactura Java/FullFactura Api/api-factura/src/main/java/Entities/MensajeWs/MensajeMenuLateral.java
/Users/javierhernandez/Documents/Docs Proyectos/MauroDocumentos/FullFactura Java/FullFactura Api/api-factura/src/main/java/Methods/IMetodos.java
/Users/javierhernandez/Documents/Docs Proyectos/MauroDocumentos/FullFactura Java/FullFactura Api/api-factura/src/main/java/Signature/FirmaDocumento.java
/Users/javierhernandez/Documents/Docs Proyectos/MauroDocumentos/FullFactura Java/FullFactura Api/api-factura/src/main/java/Entities/FE/ReceptorPk.java
/Users/javierhernandez/Documents/Docs Proyectos/MauroDocumentos/FullFactura Java/FullFactura Api/api-factura/src/main/java/Entities/FE/Correo.java
/Users/javierhernandez/Documents/Docs Proyectos/MauroDocumentos/FullFactura Java/FullFactura Api/api-factura/src/main/java/Methods/Metodos.java
/Users/javierhernandez/Documents/Docs Proyectos/MauroDocumentos/FullFactura Java/FullFactura Api/api-factura/src/main/java/Entities/FE/RutaXml.java
/Users/javierhernandez/Documents/Docs Proyectos/MauroDocumentos/FullFactura Java/FullFactura Api/api-factura/src/main/java/Entities/FE/GetDistritos.java
/Users/javierhernandez/Documents/Docs Proyectos/MauroDocumentos/FullFactura Java/FullFactura Api/api-factura/src/main/java/ws/hacienda.java
/Users/javierhernandez/Documents/Docs Proyectos/MauroDocumentos/FullFactura Java/FullFactura Api/api-factura/src/main/java/Entities/Catalogos/Moneda.java
/Users/javierhernandez/Documents/Docs Proyectos/MauroDocumentos/FullFactura Java/FullFactura Api/api-factura/src/main/java/Entities/MensajeWs/MensajeDepositoTransf.java
/Users/javierhernandez/Documents/Docs Proyectos/MauroDocumentos/FullFactura Java/FullFactura Api/api-factura/src/main/java/Entities/FE/AddTipoDocEmp.java
/Users/javierhernandez/Documents/Docs Proyectos/MauroDocumentos/FullFactura Java/FullFactura Api/api-factura/src/main/java/Entities/FE/GruposUsuarioConsulta.java
/Users/javierhernandez/Documents/Docs Proyectos/MauroDocumentos/FullFactura Java/FullFactura Api/api-factura/src/main/java/Entities/FE/IdDocumento.java
/Users/javierhernandez/Documents/Docs Proyectos/MauroDocumentos/FullFactura Java/FullFactura Api/api-factura/src/main/java/Entities/FE/SaldosEmpresa.java
/Users/javierhernandez/Documents/Docs Proyectos/MauroDocumentos/FullFactura Java/FullFactura Api/api-factura/src/main/java/Entities/MensajeWs/MensajeImpuestos.java
/Users/javierhernandez/Documents/Docs Proyectos/MauroDocumentos/FullFactura Java/FullFactura Api/api-factura/src/main/java/Entities/FE/DatosEmpresa.java
/Users/javierhernandez/Documents/Docs Proyectos/MauroDocumentos/FullFactura Java/FullFactura Api/api-factura/src/main/java/Entities/FE/MediosPago.java
/Users/javierhernandez/Documents/Docs Proyectos/MauroDocumentos/FullFactura Java/FullFactura Api/api-factura/src/main/java/Entities/MensajeWs/MensajeUnidadesMedida.java
/Users/javierhernandez/Documents/Docs Proyectos/MauroDocumentos/FullFactura Java/FullFactura Api/api-factura/src/main/java/Entities/FE/DocUrl.java
/Users/javierhernandez/Documents/Docs Proyectos/MauroDocumentos/FullFactura Java/FullFactura Api/api-factura/src/main/java/Entities/FE/Documento.java
/Users/javierhernandez/Documents/Docs Proyectos/MauroDocumentos/FullFactura Java/FullFactura Api/api-factura/src/main/java/Entities/MensajeWs/MensajePlanes.java
/Users/javierhernandez/Documents/Docs Proyectos/MauroDocumentos/FullFactura Java/FullFactura Api/api-factura/src/main/java/Entities/MensajeWs/MensajeKpi.java
/Users/javierhernandez/Documents/Docs Proyectos/MauroDocumentos/FullFactura Java/FullFactura Api/api-factura/src/main/java/Entities/MensajeWs/MensajeAddLogo.java
/Users/javierhernandez/Documents/Docs Proyectos/MauroDocumentos/FullFactura Java/FullFactura Api/api-factura/src/main/java/Entities/MensajeWs/MensajeToken.java
/Users/javierhernandez/Documents/Docs Proyectos/MauroDocumentos/FullFactura Java/FullFactura Api/api-factura/src/main/java/Entities/MensajeWs/MensajeEmpresa.java
/Users/javierhernandez/Documents/Docs Proyectos/MauroDocumentos/FullFactura Java/FullFactura Api/api-factura/src/main/java/Entities/FE/LoginSistema.java
/Users/javierhernandez/Documents/Docs Proyectos/MauroDocumentos/FullFactura Java/FullFactura Api/api-factura/src/main/java/Entities/MensajeWs/MensajeMonedas.java
/Users/javierhernandez/Documents/Docs Proyectos/MauroDocumentos/FullFactura Java/FullFactura Api/api-factura/src/main/java/Entities/MensajeWs/MensajeValidaRecepcion.java
/Users/javierhernandez/Documents/Docs Proyectos/MauroDocumentos/FullFactura Java/FullFactura Api/api-factura/src/main/java/Entities/FE/Sucursal.java
/Users/javierhernandez/Documents/Docs Proyectos/MauroDocumentos/FullFactura Java/FullFactura Api/api-factura/src/main/java/Entities/FE/ExoneracionesProducto.java
/Users/javierhernandez/Documents/Docs Proyectos/MauroDocumentos/FullFactura Java/FullFactura Api/api-factura/src/main/java/Entities/FE/AgregarExoArticulo.java
/Users/javierhernandez/Documents/Docs Proyectos/MauroDocumentos/FullFactura Java/FullFactura Api/api-factura/src/main/java/Entities/Hacienda/GeneraToken.java
/Users/javierhernandez/Documents/Docs Proyectos/MauroDocumentos/FullFactura Java/FullFactura Api/api-factura/src/main/java/Entities/MensajeWs/MensajeTipoIdentificacion.java
/Users/javierhernandez/Documents/Docs Proyectos/MauroDocumentos/FullFactura Java/FullFactura Api/api-factura/src/main/java/Entities/FE/ValidaDeposito.java
/Users/javierhernandez/Documents/Docs Proyectos/MauroDocumentos/FullFactura Java/FullFactura Api/api-factura/src/main/java/Entities/MensajeWs/MensajeDistGeografica.java
/Users/javierhernandez/Documents/Docs Proyectos/MauroDocumentos/FullFactura Java/FullFactura Api/api-factura/src/main/java/Entities/FE/Plan.java
/Users/javierhernandez/Documents/Docs Proyectos/MauroDocumentos/FullFactura Java/FullFactura Api/api-factura/src/main/java/Entities/FE/PuntoVentaEdit.java
/Users/javierhernandez/Documents/Docs Proyectos/MauroDocumentos/FullFactura Java/FullFactura Api/api-factura/src/main/java/Methods/APIHacienda.java
/Users/javierhernandez/Documents/Docs Proyectos/MauroDocumentos/FullFactura Java/FullFactura Api/api-factura/src/main/java/Entities/FE/DatosCorreo.java
/Users/javierhernandez/Documents/Docs Proyectos/MauroDocumentos/FullFactura Java/FullFactura Api/api-factura/src/main/java/Entities/FE/KpiResumen.java
/Users/javierhernandez/Documents/Docs Proyectos/MauroDocumentos/FullFactura Java/FullFactura Api/api-factura/src/main/java/Entities/FE/LineaDetalleRecepcionAdd.java
/Users/javierhernandez/Documents/Docs Proyectos/MauroDocumentos/FullFactura Java/FullFactura Api/api-factura/src/main/java/Entities/FE/GrupoUsuarioAdd.java
/Users/javierhernandez/Documents/Docs Proyectos/MauroDocumentos/FullFactura Java/FullFactura Api/api-factura/src/main/java/Entities/MensajeWs/MensajePreferencias.java
/Users/javierhernandez/Documents/Docs Proyectos/MauroDocumentos/FullFactura Java/FullFactura Api/api-factura/src/main/java/Entities/Hacienda/Token.java
/Users/javierhernandez/Documents/Docs Proyectos/MauroDocumentos/FullFactura Java/FullFactura Api/api-factura/src/main/java/Entities/MensajeWs/MensajeCuentasBanco.java
/Users/javierhernandez/Documents/Docs Proyectos/MauroDocumentos/FullFactura Java/FullFactura Api/api-factura/src/main/java/Entities/FE/ImpuestoAdd.java
/Users/javierhernandez/Documents/Docs Proyectos/MauroDocumentos/FullFactura Java/FullFactura Api/api-factura/src/main/java/Entities/FE/ArticuloAplicaExo.java
/Users/javierhernandez/Documents/Docs Proyectos/MauroDocumentos/FullFactura Java/FullFactura Api/api-factura/src/main/java/Entities/MensajeWs/MensajeArticulos.java
/Users/javierhernandez/Documents/Docs Proyectos/MauroDocumentos/FullFactura Java/FullFactura Api/api-factura/src/main/java/Entities/FE/KpiArtFacturado.java
/Users/javierhernandez/Documents/Docs Proyectos/MauroDocumentos/FullFactura Java/FullFactura Api/api-factura/src/main/java/Constants/Querys.java
/Users/javierhernandez/Documents/Docs Proyectos/MauroDocumentos/FullFactura Java/FullFactura Api/api-factura/src/main/java/Entities/MensajeWs/MensajeExoneracionesArticulos.java
/Users/javierhernandez/Documents/Docs Proyectos/MauroDocumentos/FullFactura Java/FullFactura Api/api-factura/src/main/java/Entities/FE/ProcesaCorreo.java
/Users/javierhernandez/Documents/Docs Proyectos/MauroDocumentos/FullFactura Java/FullFactura Api/api-factura/src/main/java/Entities/FE/UsrAdd.java
/Users/javierhernandez/Documents/Docs Proyectos/MauroDocumentos/FullFactura Java/FullFactura Api/api-factura/src/main/java/Entities/MensajeWs/MensajeConsultaXml.java
/Users/javierhernandez/Documents/Docs Proyectos/MauroDocumentos/FullFactura Java/FullFactura Api/api-factura/src/main/java/Entities/MensajeWs/MensajeCatalogoFactura.java
/Users/javierhernandez/Documents/Docs Proyectos/MauroDocumentos/FullFactura Java/FullFactura Api/api-factura/src/main/java/Constants/Constantes.java
/Users/javierhernandez/Documents/Docs Proyectos/MauroDocumentos/FullFactura Java/FullFactura Api/api-factura/src/main/java/Entities/MensajeWs/MensajeResumenVenta.java
/Users/javierhernandez/Documents/Docs Proyectos/MauroDocumentos/FullFactura Java/FullFactura Api/api-factura/src/main/java/Entities/FE/KpiClienteFacturado.java
/Users/javierhernandez/Documents/Docs Proyectos/MauroDocumentos/FullFactura Java/FullFactura Api/api-factura/src/main/java/Entities/FE/TipoPlanAdd.java
/Users/javierhernandez/Documents/Docs Proyectos/MauroDocumentos/FullFactura Java/FullFactura Api/api-factura/src/main/java/Entities/FE/CuentaBanco.java
/Users/javierhernandez/Documents/Docs Proyectos/MauroDocumentos/FullFactura Java/FullFactura Api/api-factura/src/main/java/Entities/MensajeWs/MensajeExoneraciones.java
/Users/javierhernandez/Documents/Docs Proyectos/MauroDocumentos/FullFactura Java/FullFactura Api/api-factura/src/main/java/Entities/FE/DatosOlvideClave.java
/Users/javierhernandez/Documents/Docs Proyectos/MauroDocumentos/FullFactura Java/FullFactura Api/api-factura/src/main/java/Entities/FE/ImpuestoArt.java
/Users/javierhernandez/Documents/Docs Proyectos/MauroDocumentos/FullFactura Java/FullFactura Api/api-factura/src/main/java/Entities/FE/IdDescripcion.java
/Users/javierhernandez/Documents/Docs Proyectos/MauroDocumentos/FullFactura Java/FullFactura Api/api-factura/src/main/java/Entities/Catalogos/ImpuestoCat.java
/Users/javierhernandez/Documents/Docs Proyectos/MauroDocumentos/FullFactura Java/FullFactura Api/api-factura/src/main/java/Entities/MensajeWs/MensajeUsrAdd.java
/Users/javierhernandez/Documents/Docs Proyectos/MauroDocumentos/FullFactura Java/FullFactura Api/api-factura/src/main/java/Entities/MensajeWs/MensajeBase.java
/Users/javierhernandez/Documents/Docs Proyectos/MauroDocumentos/FullFactura Java/FullFactura Api/api-factura/src/main/java/Entities/MensajeWs/MensajeInsert.java
/Users/javierhernandez/Documents/Docs Proyectos/MauroDocumentos/FullFactura Java/FullFactura Api/api-factura/src/main/java/Entities/MensajeWs/MensajeLogin.java
/Users/javierhernandez/Documents/Docs Proyectos/MauroDocumentos/FullFactura Java/FullFactura Api/api-factura/src/main/java/Entities/MensajeWs/MensajeMediosPago.java
/Users/javierhernandez/Documents/Docs Proyectos/MauroDocumentos/FullFactura Java/FullFactura Api/api-factura/src/main/java/Signature/DirectPasswordProvider.java
/Users/javierhernandez/Documents/Docs Proyectos/MauroDocumentos/FullFactura Java/FullFactura Api/api-factura/src/main/java/Entities/FE/LineaDetalleAdd.java
/Users/javierhernandez/Documents/Docs Proyectos/MauroDocumentos/FullFactura Java/FullFactura Api/api-factura/src/main/java/Entities/MensajeWs/MensajeDistribuidores.java
/Users/javierhernandez/Documents/Docs Proyectos/MauroDocumentos/FullFactura Java/FullFactura Api/api-factura/src/main/java/Entities/FE/SucursalAdd.java
/Users/javierhernandez/Documents/Docs Proyectos/MauroDocumentos/FullFactura Java/FullFactura Api/api-factura/src/main/java/Entities/FE/Exoneracion.java
/Users/javierhernandez/Documents/Docs Proyectos/MauroDocumentos/FullFactura Java/FullFactura Api/api-factura/src/main/java/Entities/MensajeWs/MensajePuntoVenta.java
/Users/javierhernandez/Documents/Docs Proyectos/MauroDocumentos/FullFactura Java/FullFactura Api/api-factura/src/main/java/Entities/FE/GetBarrios.java
/Users/javierhernandez/Documents/Docs Proyectos/MauroDocumentos/FullFactura Java/FullFactura Api/api-factura/src/main/java/Entities/MensajeWs/MensajeDocumento.java
/Users/javierhernandez/Documents/Docs Proyectos/MauroDocumentos/FullFactura Java/FullFactura Api/api-factura/src/main/java/Entities/FE/Receptor.java
/Users/javierhernandez/Documents/Docs Proyectos/MauroDocumentos/FullFactura Java/FullFactura Api/api-factura/src/main/java/Entities/FE/Usr.java
/Users/javierhernandez/Documents/Docs Proyectos/MauroDocumentos/FullFactura Java/FullFactura Api/api-factura/src/main/java/Entities/FE/Articulo.java
/Users/javierhernandez/Documents/Docs Proyectos/MauroDocumentos/FullFactura Java/FullFactura Api/api-factura/src/main/java/Entities/MensajeWs/MensajeConsultaGrupos.java
/Users/javierhernandez/Documents/Docs Proyectos/MauroDocumentos/FullFactura Java/FullFactura Api/api-factura/src/main/java/Entities/MensajeWs/MensajeTipos.java
/Users/javierhernandez/Documents/Docs Proyectos/MauroDocumentos/FullFactura Java/FullFactura Api/api-factura/src/main/java/Entities/FE/Usuario.java
/Users/javierhernandez/Documents/Docs Proyectos/MauroDocumentos/FullFactura Java/FullFactura Api/api-factura/src/main/java/Entities/MensajeWs/MensajeSaldosEmp.java
/Users/javierhernandez/Documents/Docs Proyectos/MauroDocumentos/FullFactura Java/FullFactura Api/api-factura/src/main/java/Entities/FE/ImpuestoExoClienteAdd.java
/Users/javierhernandez/Documents/Docs Proyectos/MauroDocumentos/FullFactura Java/FullFactura Api/api-factura/src/main/java/Entities/FE/Banco.java
/Users/javierhernandez/Documents/Docs Proyectos/MauroDocumentos/FullFactura Java/FullFactura Api/api-factura/src/main/java/Entities/FE/TokenHacienda.java
/Users/javierhernandez/Documents/Docs Proyectos/MauroDocumentos/FullFactura Java/FullFactura Api/api-factura/src/main/java/Entities/MensajeWs/MensajeTiposPlan.java
/Users/javierhernandez/Documents/Docs Proyectos/MauroDocumentos/FullFactura Java/FullFactura Api/api-factura/src/main/java/Entities/FE/TokenCorreo.java
/Users/javierhernandez/Documents/Docs Proyectos/MauroDocumentos/FullFactura Java/FullFactura Api/api-factura/src/main/java/Signature/FirstCertificateSelector.java
/Users/javierhernandez/Documents/Docs Proyectos/MauroDocumentos/FullFactura Java/FullFactura Api/api-factura/src/main/java/Entities/FE/IdDocIdEmpresa.java
/Users/javierhernandez/Documents/Docs Proyectos/MauroDocumentos/FullFactura Java/FullFactura Api/api-factura/src/main/java/Entities/FE/DepositoTransf.java
/Users/javierhernandez/Documents/Docs Proyectos/MauroDocumentos/FullFactura Java/FullFactura Api/api-factura/src/main/java/Entities/Catalogos/Plantilla.java
/Users/javierhernandez/Documents/Docs Proyectos/MauroDocumentos/FullFactura Java/FullFactura Api/api-factura/src/main/java/Entities/FE/Preferencias.java
/Users/javierhernandez/Documents/Docs Proyectos/MauroDocumentos/FullFactura Java/FullFactura Api/api-factura/src/main/java/Entities/FE/FiltraDocumento.java
/Users/javierhernandez/Documents/Docs Proyectos/MauroDocumentos/FullFactura Java/FullFactura Api/api-factura/src/main/java/Entities/FE/GruposUsuario.java
/Users/javierhernandez/Documents/Docs Proyectos/MauroDocumentos/FullFactura Java/FullFactura Api/api-factura/src/main/java/Entities/Catalogos/Identificacion.java
/Users/javierhernandez/Documents/Docs Proyectos/MauroDocumentos/FullFactura Java/FullFactura Api/api-factura/src/main/java/Entities/FE/ReceptorAdd.java
/Users/javierhernandez/Documents/Docs Proyectos/MauroDocumentos/FullFactura Java/FullFactura Api/api-factura/src/main/java/Entities/FE/PuntoVentaAdd.java
/Users/javierhernandez/Documents/Docs Proyectos/MauroDocumentos/FullFactura Java/FullFactura Api/api-factura/src/main/java/Entities/MensajeWs/MensajeReceptor.java
/Users/javierhernandez/Documents/Docs Proyectos/MauroDocumentos/FullFactura Java/FullFactura Api/api-factura/src/main/java/Entities/Catalogos/CodDescripcion.java
/Users/javierhernandez/Documents/Docs Proyectos/MauroDocumentos/FullFactura Java/FullFactura Api/api-factura/src/main/java/ws/catalogos.java
/Users/javierhernandez/Documents/Docs Proyectos/MauroDocumentos/FullFactura Java/FullFactura Api/api-factura/src/main/java/Entities/FE/Empresa.java
/Users/javierhernandez/Documents/Docs Proyectos/MauroDocumentos/FullFactura Java/FullFactura Api/api-factura/src/main/java/Entities/FE/ExoneracionArt.java
/Users/javierhernandez/Documents/Docs Proyectos/MauroDocumentos/FullFactura Java/FullFactura Api/api-factura/src/main/java/Entities/Hacienda/SendHacienda.java
/Users/javierhernandez/Documents/Docs Proyectos/MauroDocumentos/FullFactura Java/FullFactura Api/api-factura/src/main/java/Entities/FE/UpdateDataDocumentoPlantilla.java
/Users/javierhernandez/Documents/Docs Proyectos/MauroDocumentos/FullFactura Java/FullFactura Api/api-factura/src/main/java/Entities/MensajeWs/MensajeArticulosAplicaExo.java
/Users/javierhernandez/Documents/Docs Proyectos/MauroDocumentos/FullFactura Java/FullFactura Api/api-factura/src/main/java/Entities/Catalogos/Pagina.java
/Users/javierhernandez/Documents/Docs Proyectos/MauroDocumentos/FullFactura Java/FullFactura Api/api-factura/src/main/java/Entities/FE/ProcesaSyncEnvio.java
/Users/javierhernandez/Documents/Docs Proyectos/MauroDocumentos/FullFactura Java/FullFactura Api/api-factura/src/main/java/Entities/FE/MedioPagoAdd.java
/Users/javierhernandez/Documents/Docs Proyectos/MauroDocumentos/FullFactura Java/FullFactura Api/api-factura/src/main/java/Auth/JWT.java
/Users/javierhernandez/Documents/Docs Proyectos/MauroDocumentos/FullFactura Java/FullFactura Api/api-factura/src/main/java/Entities/MensajeWs/MensajeUsr.java
/Users/javierhernandez/Documents/Docs Proyectos/MauroDocumentos/FullFactura Java/FullFactura Api/api-factura/src/main/java/ws/seguridad.java
/Users/javierhernandez/Documents/Docs Proyectos/MauroDocumentos/FullFactura Java/FullFactura Api/api-factura/src/main/java/Entities/MensajeWs/MensajeUsuarios.java
/Users/javierhernandez/Documents/Docs Proyectos/MauroDocumentos/FullFactura Java/FullFactura Api/api-factura/src/main/java/Entities/FE/InteresadoDocumento.java
/Users/javierhernandez/Documents/Docs Proyectos/MauroDocumentos/FullFactura Java/FullFactura Api/api-factura/src/main/java/Entities/FE/PlantillaTags.java
/Users/javierhernandez/Documents/Docs Proyectos/MauroDocumentos/FullFactura Java/FullFactura Api/api-factura/src/main/java/Entities/MensajeWs/MensajePlantillas.java
/Users/javierhernandez/Documents/Docs Proyectos/MauroDocumentos/FullFactura Java/FullFactura Api/api-factura/src/main/java/Entities/MensajeWs/MensajePags.java
/Users/javierhernandez/Documents/Docs Proyectos/MauroDocumentos/FullFactura Java/FullFactura Api/api-factura/src/main/java/Entities/FE/EmpresasUsuario.java
/Users/javierhernandez/Documents/Docs Proyectos/MauroDocumentos/FullFactura Java/FullFactura Api/api-factura/src/main/java/Entities/FE/ImpuestoRecepcionAdd.java
/Users/javierhernandez/Documents/Docs Proyectos/MauroDocumentos/FullFactura Java/FullFactura Api/api-factura/src/main/java/Entities/FE/PuntoVenta.java
/Users/javierhernandez/Documents/Docs Proyectos/MauroDocumentos/FullFactura Java/FullFactura Api/api-factura/src/main/java/Entities/MensajeWs/MensajeSucursal.java
/Users/javierhernandez/Documents/Docs Proyectos/MauroDocumentos/FullFactura Java/FullFactura Api/api-factura/src/main/java/Entities/FE/EmpresaGrupoAdd.java
/Users/javierhernandez/Documents/Docs Proyectos/MauroDocumentos/FullFactura Java/FullFactura Api/api-factura/src/main/java/Entities/FE/ActualizaClave.java
/Users/javierhernandez/Documents/Docs Proyectos/MauroDocumentos/FullFactura Java/FullFactura Api/api-factura/src/main/java/Entities/FE/LineaDetalle.java
/Users/javierhernandez/Documents/Docs Proyectos/MauroDocumentos/FullFactura Java/FullFactura Api/api-factura/src/main/java/Entities/MensajeWs/MensajeTags.java
/Users/javierhernandez/Documents/Docs Proyectos/MauroDocumentos/FullFactura Java/FullFactura Api/api-factura/src/main/java/Entities/FE/TipoPlan.java
/Users/javierhernandez/Documents/Docs Proyectos/MauroDocumentos/FullFactura Java/FullFactura Api/api-factura/src/main/java/Entities/FE/Impuesto.java
/Users/javierhernandez/Documents/Docs Proyectos/MauroDocumentos/FullFactura Java/FullFactura Api/api-factura/src/main/java/Entities/FE/EmpresaUsuario.java
/Users/javierhernandez/Documents/Docs Proyectos/MauroDocumentos/FullFactura Java/FullFactura Api/api-factura/src/main/java/Entities/MensajeWs/MensajeCondicionesVenta.java
/Users/javierhernandez/Documents/Docs Proyectos/MauroDocumentos/FullFactura Java/FullFactura Api/api-factura/src/main/java/Entities/FE/OpcionMenu.java
/Users/javierhernandez/Documents/Docs Proyectos/MauroDocumentos/FullFactura Java/FullFactura Api/api-factura/src/main/java/Entities/FE/PlanAdd.java
/Users/javierhernandez/Documents/Docs Proyectos/MauroDocumentos/FullFactura Java/FullFactura Api/api-factura/src/main/java/Entities/MensajeWs/MensajeBancos.java
/Users/javierhernandez/Documents/Docs Proyectos/MauroDocumentos/FullFactura Java/FullFactura Api/api-factura/src/main/java/Signature/Pkcs12Util.java
/Users/javierhernandez/Documents/Docs Proyectos/MauroDocumentos/FullFactura Java/FullFactura Api/api-factura/src/main/java/Entities/FE/InfReferenciaRecepcionAdd.java
/Users/javierhernandez/Documents/Docs Proyectos/MauroDocumentos/FullFactura Java/FullFactura Api/api-factura/src/main/java/Entities/FE/Pags.java
/Users/javierhernandez/Documents/Docs Proyectos/MauroDocumentos/FullFactura Java/FullFactura Api/api-factura/src/main/java/Entities/MensajeWs/MensajePaginas.java
/Users/javierhernandez/Documents/Docs Proyectos/MauroDocumentos/FullFactura Java/FullFactura Api/api-factura/src/main/java/Entities/FE/ResumenVenta.java
/Users/javierhernandez/Documents/Docs Proyectos/MauroDocumentos/FullFactura Java/FullFactura Api/api-factura/src/main/java/Entities/FE/EmisorToken.java
/Users/javierhernandez/Documents/Docs Proyectos/MauroDocumentos/FullFactura Java/FullFactura Api/api-factura/src/main/java/Entities/MensajeWs/MensajeCargaCatalogos.java
/Users/javierhernandez/Documents/Docs Proyectos/MauroDocumentos/FullFactura Java/FullFactura Api/api-factura/src/main/java/Entities/FE/DocumentoAdd.java
/Users/javierhernandez/Documents/Docs Proyectos/MauroDocumentos/FullFactura Java/FullFactura Api/api-factura/src/main/java/Entities/FE/ArticuloAdd.java
/Users/javierhernandez/Documents/Docs Proyectos/MauroDocumentos/FullFactura Java/FullFactura Api/api-factura/src/main/java/Entities/MensajeWs/MensajeInsertArticulo.java
/Users/javierhernandez/Documents/Docs Proyectos/MauroDocumentos/FullFactura Java/FullFactura Api/api-factura/src/main/java/ws/factura.java
/Users/javierhernandez/Documents/Docs Proyectos/MauroDocumentos/FullFactura Java/FullFactura Api/api-factura/src/main/java/Entities/FE/DatosTextoPlantilla.java
/Users/javierhernandez/Documents/Docs Proyectos/MauroDocumentos/FullFactura Java/FullFactura Api/api-factura/src/main/java/Entities/MensajeWs/MensajeConsultaHacienda.java
/Users/javierhernandez/Documents/Docs Proyectos/MauroDocumentos/FullFactura Java/FullFactura Api/api-factura/src/main/java/Entities/FE/ProcesarCatalogoEmp.java
/Users/javierhernandez/Documents/Docs Proyectos/MauroDocumentos/FullFactura Java/FullFactura Api/api-factura/src/main/java/Entities/FE/DepositoTransfAdd.java
/Users/javierhernandez/Documents/Docs Proyectos/MauroDocumentos/FullFactura Java/FullFactura Api/api-factura/src/main/java/DBConnection/HikariConnection.java
/Users/javierhernandez/Documents/Docs Proyectos/MauroDocumentos/FullFactura Java/FullFactura Api/api-factura/src/main/java/Entities/Hacienda/Callback.java
/Users/javierhernandez/Documents/Docs Proyectos/MauroDocumentos/FullFactura Java/FullFactura Api/api-factura/src/main/java/Entities/FE/FiltroKpi.java
/Users/javierhernandez/Documents/Docs Proyectos/MauroDocumentos/FullFactura Java/FullFactura Api/api-factura/src/main/java/Entities/MensajeWs/MensajeDatosEmpresa.java
/Users/javierhernandez/Documents/Docs Proyectos/MauroDocumentos/FullFactura Java/FullFactura Api/api-factura/src/main/java/Entities/FE/BuscarArticulo.java
/Users/javierhernandez/Documents/Docs Proyectos/MauroDocumentos/FullFactura Java/FullFactura Api/api-factura/src/main/java/Entities/FE/DatosDistribuidor.java
/Users/javierhernandez/Documents/Docs Proyectos/MauroDocumentos/FullFactura Java/FullFactura Api/api-factura/src/main/java/Entities/MensajeWs/MensajeInteresados.java
/Users/javierhernandez/Documents/Docs Proyectos/MauroDocumentos/FullFactura Java/FullFactura Api/api-factura/src/main/java/Entities/FE/GetCantones.java
/Users/javierhernandez/Documents/Docs Proyectos/MauroDocumentos/FullFactura Java/FullFactura Api/api-factura/src/main/java/Entities/FE/BuscarReceptor.java
/Users/javierhernandez/Documents/Docs Proyectos/MauroDocumentos/FullFactura Java/FullFactura Api/api-factura/src/main/java/Entities/Hacienda/CheckHacienda.java
