Entities/FE/ImpuestoAdd.class
Entities/FE/Receptor.class
Entities/FE/TipoPlan.class
Entities/MensajeWs/MensajeConsultaXml.class
Signature/Pkcs12Util.class
Entities/MensajeWs/MensajeExoneraciones.class
Entities/MensajeWs/MensajeUsr.class
Entities/MensajeWs/MensajeUsrAdd.class
Signature/FirmaDocumento$3.class
Entities/MensajeWs/MensajeCondicionesVenta.class
Entities/FE/MediosPago.class
Entities/FE/GrupoUsuarioAdd.class
Entities/FE/InformacionReferenciaAdd.class
Entities/MensajeWs/MensajeTipoIdentificacion.class
Entities/MensajeWs/MensajeCuentasBanco.class
Entities/FE/LineaDetalleRecepcionAdd.class
Entities/MensajeWs/MensajeMediosPago.class
Entities/FE/DatosEmpresa.class
Entities/FE/LineaDetalleAdd.class
Entities/MensajeWs/MensajeTiposPlan.class
Entities/FE/PlanAdd.class
Entities/MensajeWs/MensajeDistribuidores.class
Entities/FE/KpiArtFacturado.class
Entities/FE/GruposUsuario.class
Signature/FirstCertificateSelector.class
Entities/MensajeWs/MensajeEmpresas.class
Entities/MensajeWs/MensajeConsultaHacienda.class
Entities/FE/Banco.class
Entities/FE/InteresadoDocumento.class
Entities/FE/GetBarrios.class
Entities/MensajeWs/MensajeLogin.class
Entities/MensajeWs/MensajeDatosEmpresa.class
Entities/MensajeWs/MensajeArticulos.class
Entities/MensajeWs/MensajeEmpresa.class
Entities/FE/InfReferenciaRecepcionAdd.class
Entities/FE/PuntoVenta.class
Entities/MensajeWs/MensajeUnidadesMedida.class
Entities/Catalogos/Pagina.class
Entities/Catalogos/Moneda.class
Entities/FE/Correo.class
Entities/FE/TipoPlanAdd.class
Entities/FE/PuntoVentaAdd.class
Entities/MensajeWs/MensajeImpuestos.class
Entities/FE/ActualizaClave.class
Entities/FE/CuentaBanco.class
Entities/MensajeWs/MensajeAddLogo.class
Entities/FE/Preferencias.class
DBConnection/HikariConnection.class
Entities/FE/AddTipoDocEmp.class
Entities/FE/ValidaDeposito.class
Entities/FE/EmpresaUsuario.class
Methods/IMetodos.class
Entities/FE/LoginSistema.class
ws/catalogos.class
Entities/MensajeWs/MensajeRadiusExoneraciones.class
Entities/MensajeWs/MensajePreferencias.class
Entities/FE/Usuario.class
Entities/Catalogos/Identificacion.class
Entities/FE/RutaXml.class
Entities/Hacienda/Callback.class
Entities/Catalogos/CodDescripcion.class
Entities/FE/Exoneracion.class
Entities/MensajeWs/MensajeSaldosEmp.class
Entities/FE/FiltroKpi.class
Entities/MensajeWs/MensajePuntoVenta.class
Entities/Hacienda/CheckHacienda.class
Entities/FE/UsrAdd.class
Entities/FE/Empresa.class
Entities/FE/DatosOlvideClave.class
Entities/FE/Impuesto.class
Entities/Catalogos/DistGeografica.class
Signature/FirmaDocumento$1.class
Methods/APIHacienda.class
Entities/FE/FiltraDocumento.class
Entities/FE/GetCantones.class
Entities/Hacienda/SendHacienda.class
Entities/MensajeWs/MensajeReceptor.class
Entities/FE/Usr.class
Entities/FE/ProcesaCorreo.class
Entities/MensajeWs/MensajeDepositoTransf.class
Signature/DirectPasswordProvider.class
Entities/FE/ProcesarCatalogoEmp.class
Entities/FE/DatosDistribuidor.class
Entities/FE/SaldosEmpresa.class
Entities/FE/EmisorToken.class
Entities/MensajeWs/MensajeMonedas.class
Entities/FE/ReceptorPk.class
Entities/MensajeWs/MensajeTipos.class
Entities/FE/ImpuestoArt.class
Entities/FE/GetDistritos.class
Entities/FE/EmpresasUsuario.class
Methods/Metodos$2.class
Entities/MensajeWs/MensajeCatalogoFactura.class
Entities/FE/PuntoVentaEdit.class
Entities/FE/MedioPagoAdd.class
Entities/MensajeWs/MensajeMenuLateral.class
Entities/FE/DocumentoRecepcionAdd.class
Entities/Catalogos/RadiusExoneraciones.class
Constants/Querys.class
Entities/MensajeWs/MensajeBancos.class
Entities/Hacienda/GeneraToken.class
Entities/MensajeWs/MensajePaginas.class
Entities/FE/LineaDetalle.class
Signature/FirmaDocumento$2.class
Entities/FE/Plan.class
Entities/FE/Sucursal.class
Entities/MensajeWs/MensajeInsert.class
Entities/FE/IdDescripcion.class
Entities/Catalogos/ImpuestoCat.class
Entities/FE/GruposUsuarioConsulta.class
Constants/Constantes.class
Entities/FE/IdDocIdEmpresa.class
Entities/FE/KpiClienteFacturado.class
Signature/FirmaDocumento.class
Entities/MensajeWs/MensajeDocumento.class
Entities/FE/IdDocumento.class
Entities/FE/KpiResumen.class
Entities/FE/DepositoTransfAdd.class
Entities/FE/ArticuloAdd.class
ws/factura.class
Entities/MensajeWs/MensajeDistGeografica.class
Entities/FE/DatosCorreo.class
Entities/FE/Documento.class
Entities/MensajeWs/MensajeInteresados.class
Entities/MensajeWs/MensajeBase.class
Entities/FE/ImpuestoRecepcionAdd.class
Entities/FE/ReceptorAdd.class
Entities/FE/SucursalAdd.class
ws/hacienda.class
Entities/FE/DocumentoAdd.class
Entities/Hacienda/Token.class
Entities/MensajeWs/MensajeValidaRecepcion.class
Entities/FE/TokenCorreo.class
Methods/Metodos.class
Entities/FE/ExoneracionArt.class
Entities/FE/DepositoTransf.class
Entities/MensajeWs/MensajePlanes.class
Entities/FE/ImpuestoExoClienteAdd.class
Methods/Metodos$1.class
Entities/FE/Articulo.class
Entities/FE/TokenHacienda.class
Entities/MensajeWs/MensajeToken.class
Entities/MensajeWs/MensajeSucursal.class
Entities/FE/EmpresaGrupoAdd.class
Entities/MensajeWs/MensajeConsultaGrupos.class
Entities/MensajeWs/MensajeKpi.class
Auth/JWT.class
Entities/MensajeWs/MensajeUsuarios.class
Entities/FE/Pags.class
Entities/MensajeWs/MensajePags.class
Entities/FE/OpcionMenu.class
ws/seguridad.class
